…
Let’s start with a for loop

``` r
output = vector("list", length = 100)

for (i in 1:100) {
  
  output[[i]] = sim_mean_sd(samp_size = 30)
  
}

bind_rows(output)
```

    ## # A tibble: 100 × 2
    ##     mean    sd
    ##    <dbl> <dbl>
    ##  1  2.91  4.02
    ##  2  2.60  4.58
    ##  3  2.96  5.06
    ##  4  3.71  3.46
    ##  5  2.87  3.88
    ##  6  3.88  4.37
    ##  7  2.35  5.10
    ##  8  2.65  3.44
    ##  9  2.60  3.73
    ## 10  3.09  4.61
    ## # ℹ 90 more rows
…
